{
	"info": {
		"_postman_id": "dcb0999a-e16d-4175-901d-196e10af220b",
		"name": "API tests Copy",
		"schema": "https://schema.getpostman.com/json/collection/v2.1.0/collection.json",
		"_exporter_id": "22394808"
	},
	"item": [
		{
			"name": "Authorization",
			"item": [
				{
					"name": "Create auth key",
					"event": [
						{
							"listen": "test",
							"script": {
								"exec": [
									"pm.test(\"Set Variable\", function () {\r",
									"    var jsonData = pm.response.json();\r",
									"    pm.environment.set(\"Auth_token\", jsonData.token);\r",
									"});"
								],
								"type": "text/javascript"
							}
						}
					],
					"request": {
						"method": "POST",
						"header": [],
						"body": {
							"mode": "raw",
							"raw": "{\r\n    \"apiKey\": \"iVE.ONE_XRANgBjo0z\"\r\n}",
							"options": {
								"raw": {
									"language": "json"
								}
							}
						},
						"url": {
							"raw": "https://investment-back.test.ive.one/api/auth",
							"protocol": "https",
							"host": [
								"investment-back",
								"test",
								"ive",
								"one"
							],
							"path": [
								"api",
								"auth"
							]
						}
					},
					"response": []
				}
			]
		},
		{
			"name": "Access rights",
			"item": [
				{
					"name": "GET List access rights",
					"event": [
						{
							"listen": "test",
							"script": {
								"exec": [
									"pm.test(\"Status code is 200\", function () {\r",
									"    pm.response.to.have.status(200);\r",
									"});\r",
									""
								],
								"type": "text/javascript"
							}
						}
					],
					"protocolProfileBehavior": {
						"disableBodyPruning": true
					},
					"request": {
						"method": "GET",
						"header": [
							{
								"key": "API-TOKEN",
								"value": "{{Auth_token}}",
								"type": "text"
							}
						],
						"body": {
							"mode": "raw",
							"raw": "",
							"options": {
								"raw": {
									"language": "json"
								}
							}
						},
						"url": {
							"raw": "https://investment-back.test.ive.one/api/access",
							"protocol": "https",
							"host": [
								"investment-back",
								"test",
								"ive",
								"one"
							],
							"path": [
								"api",
								"access"
							]
						}
					},
					"response": []
				}
			]
		},
		{
			"name": "Assets",
			"item": [
				{
					"name": "GET List asstes by user(bug)",
					"event": [
						{
							"listen": "test",
							"script": {
								"exec": [
									"pm.test(\"Status code is 200\", function () {\r",
									"    pm.response.to.have.status(200);\r",
									"});\r",
									""
								],
								"type": "text/javascript"
							}
						}
					],
					"protocolProfileBehavior": {
						"disableBodyPruning": true
					},
					"request": {
						"method": "GET",
						"header": [
							{
								"key": "API-TOKEN",
								"value": "{{Auth_token}}",
								"type": "text"
							}
						],
						"body": {
							"mode": "raw",
							"raw": "",
							"options": {
								"raw": {
									"language": "json"
								}
							}
						},
						"url": {
							"raw": "https://investment-back.test.ive.one/api/assets/user/{{userId}}",
							"protocol": "https",
							"host": [
								"investment-back",
								"test",
								"ive",
								"one"
							],
							"path": [
								"api",
								"assets",
								"user",
								"{{userId}}"
							]
						}
					},
					"response": []
				}
			]
		},
		{
			"name": "Bank transaction",
			"item": [
				{
					"name": "GET List bank transactions",
					"event": [
						{
							"listen": "test",
							"script": {
								"exec": [
									"pm.test(\"Status code is 200\", function () {\r",
									"    pm.response.to.have.status(200);\r",
									"});\r",
									""
								],
								"type": "text/javascript"
							}
						}
					],
					"protocolProfileBehavior": {
						"disableBodyPruning": true
					},
					"request": {
						"method": "GET",
						"header": [
							{
								"key": "API-TOKEN",
								"value": "{{Auth_token}}",
								"type": "text"
							}
						],
						"body": {
							"mode": "raw",
							"raw": "",
							"options": {
								"raw": {
									"language": "json"
								}
							}
						},
						"url": {
							"raw": "https://investment-back.test.ive.one/api/bank-transactions",
							"protocol": "https",
							"host": [
								"investment-back",
								"test",
								"ive",
								"one"
							],
							"path": [
								"api",
								"bank-transactions"
							]
						}
					},
					"response": []
				},
				{
					"name": "GET List bank transactions by token",
					"event": [
						{
							"listen": "test",
							"script": {
								"exec": [
									"pm.test(\"Status code is 200\", function () {\r",
									"    pm.response.to.have.status(200);\r",
									"});\r",
									""
								],
								"type": "text/javascript"
							}
						}
					],
					"protocolProfileBehavior": {
						"disableBodyPruning": true
					},
					"request": {
						"method": "GET",
						"header": [
							{
								"key": "API-TOKEN",
								"value": "{{Auth_token}}",
								"type": "text"
							}
						],
						"body": {
							"mode": "raw",
							"raw": "",
							"options": {
								"raw": {
									"language": "json"
								}
							}
						},
						"url": {
							"raw": "https://investment-back.test.ive.one/api/bank-transactions/sellOrderId/{{sell_orderId}}",
							"protocol": "https",
							"host": [
								"investment-back",
								"test",
								"ive",
								"one"
							],
							"path": [
								"api",
								"bank-transactions",
								"sellOrderId",
								"{{sell_orderId}}"
							]
						}
					},
					"response": []
				}
			]
		},
		{
			"name": "Buy orders",
			"item": [
				{
					"name": "GET List buy orders by Token",
					"event": [
						{
							"listen": "test",
							"script": {
								"exec": [
									"pm.test(\"Status code is 200\", function () {\r",
									"    pm.response.to.have.status(200);\r",
									"});\r",
									""
								],
								"type": "text/javascript"
							}
						}
					],
					"protocolProfileBehavior": {
						"disableBodyPruning": true
					},
					"request": {
						"method": "GET",
						"header": [
							{
								"key": "API-TOKEN",
								"value": "{{Auth_token}}",
								"type": "text"
							}
						],
						"body": {
							"mode": "raw",
							"raw": "",
							"options": {
								"raw": {
									"language": "json"
								}
							}
						},
						"url": {
							"raw": "https://investment-back.test.ive.one/api/buy-orders/sell-order/{{sell_orderId}}",
							"protocol": "https",
							"host": [
								"investment-back",
								"test",
								"ive",
								"one"
							],
							"path": [
								"api",
								"buy-orders",
								"sell-order",
								"{{sell_orderId}}"
							]
						}
					},
					"response": []
				},
				{
					"name": "GET List buy orders by project",
					"event": [
						{
							"listen": "test",
							"script": {
								"exec": [
									"pm.test(\"Status code is 200\", function () {\r",
									"    pm.response.to.have.status(200);\r",
									"});\r",
									"\r",
									"pm.test(\"Set Variable\", function () {\r",
									"    var jsonData = pm.response.json();\r",
									"    pm.environment.set(\"buy_orderId\", jsonData[0].id);\r",
									"});"
								],
								"type": "text/javascript"
							}
						}
					],
					"protocolProfileBehavior": {
						"disableBodyPruning": true
					},
					"request": {
						"method": "GET",
						"header": [
							{
								"key": "API-TOKEN",
								"value": "{{Auth_token}}",
								"type": "text"
							}
						],
						"body": {
							"mode": "raw",
							"raw": "",
							"options": {
								"raw": {
									"language": "json"
								}
							}
						},
						"url": {
							"raw": "https://investment-back.test.ive.one/api/buy-orders/project/{{projectId}}",
							"protocol": "https",
							"host": [
								"investment-back",
								"test",
								"ive",
								"one"
							],
							"path": [
								"api",
								"buy-orders",
								"project",
								"{{projectId}}"
							]
						}
					},
					"response": []
				},
				{
					"name": "GET A buy order",
					"event": [
						{
							"listen": "test",
							"script": {
								"exec": [
									"pm.test(\"Status code is 200\", function () {\r",
									"    pm.response.to.have.status(200);\r",
									"});\r",
									""
								],
								"type": "text/javascript"
							}
						}
					],
					"protocolProfileBehavior": {
						"disableBodyPruning": true
					},
					"request": {
						"method": "GET",
						"header": [
							{
								"key": "API-TOKEN",
								"value": "{{Auth_token}}",
								"type": "text"
							}
						],
						"body": {
							"mode": "raw",
							"raw": "",
							"options": {
								"raw": {
									"language": "json"
								}
							}
						},
						"url": {
							"raw": "https://investment-back.test.ive.one/api/buy-orders/{{buy_orderId}}",
							"protocol": "https",
							"host": [
								"investment-back",
								"test",
								"ive",
								"one"
							],
							"path": [
								"api",
								"buy-orders",
								"{{buy_orderId}}"
							]
						}
					},
					"response": []
				}
			]
		},
		{
			"name": "Crypto traiding",
			"item": [
				{
					"name": "GET An account balance",
					"event": [
						{
							"listen": "test",
							"script": {
								"exec": [
									"pm.test(\"Status code is 200\", function () {\r",
									"    pm.response.to.have.status(200);\r",
									"});\r",
									""
								],
								"type": "text/javascript"
							}
						}
					],
					"protocolProfileBehavior": {
						"disableBodyPruning": true
					},
					"request": {
						"method": "GET",
						"header": [
							{
								"key": "API-TOKEN",
								"value": "{{Auth_token}}",
								"type": "text"
							}
						],
						"body": {
							"mode": "raw",
							"raw": "",
							"options": {
								"raw": {
									"language": "json"
								}
							}
						},
						"url": {
							"raw": "https://investment-back.test.ive.one/api/crypto-trade/accounts/{{accountName}}/balance",
							"protocol": "https",
							"host": [
								"investment-back",
								"test",
								"ive",
								"one"
							],
							"path": [
								"api",
								"crypto-trade",
								"accounts",
								"{{accountName}}",
								"balance"
							]
						}
					},
					"response": []
				},
				{
					"name": "GET All balances",
					"event": [
						{
							"listen": "test",
							"script": {
								"exec": [
									"pm.test(\"Status code is 200\", function () {\r",
									"    pm.response.to.have.status(200);\r",
									"});\r",
									"\r",
									"pm.test(\"Set Variable\", function () {\r",
									"    var jsonData = pm.response.json();\r",
									"    pm.environment.set(\"accountName\", jsonData[0].accountName);\r",
									"});"
								],
								"type": "text/javascript"
							}
						}
					],
					"protocolProfileBehavior": {
						"disableBodyPruning": true
					},
					"request": {
						"method": "GET",
						"header": [
							{
								"key": "API-TOKEN",
								"value": "{{Auth_token}}",
								"type": "text"
							}
						],
						"body": {
							"mode": "raw",
							"raw": "",
							"options": {
								"raw": {
									"language": "json"
								}
							}
						},
						"url": {
							"raw": "https://investment-back.test.ive.one/api/crypto-trade/accounts/balance",
							"protocol": "https",
							"host": [
								"investment-back",
								"test",
								"ive",
								"one"
							],
							"path": [
								"api",
								"crypto-trade",
								"accounts",
								"balance"
							]
						}
					},
					"response": []
				},
				{
					"name": "GET Orders",
					"event": [
						{
							"listen": "test",
							"script": {
								"exec": [
									"pm.test(\"Status code is 200\", function () {\r",
									"    pm.response.to.have.status(200);\r",
									"});\r",
									"\r",
									"pm.test(\"Set Variable\", function () {\r",
									"    var jsonData = pm.response.json();\r",
									"    pm.environment.set(\"accountName\", jsonData[0].accountName);\r",
									"});"
								],
								"type": "text/javascript"
							}
						}
					],
					"protocolProfileBehavior": {
						"disableBodyPruning": true
					},
					"request": {
						"method": "GET",
						"header": [
							{
								"key": "API-TOKEN",
								"value": "{{Auth_token}}",
								"type": "text"
							}
						],
						"body": {
							"mode": "raw",
							"raw": "",
							"options": {
								"raw": {
									"language": "json"
								}
							}
						},
						"url": {
							"raw": "https://investment-back.test.ive.one/api/crypto-trade/orders",
							"protocol": "https",
							"host": [
								"investment-back",
								"test",
								"ive",
								"one"
							],
							"path": [
								"api",
								"crypto-trade",
								"orders"
							]
						}
					},
					"response": []
				}
			]
		},
		{
			"name": "Documents",
			"item": [
				{
					"name": "GET Documents",
					"event": [
						{
							"listen": "test",
							"script": {
								"exec": [
									"pm.test(\"Status code is 200\", function () {\r",
									"    pm.response.to.have.status(200);\r",
									"});\r",
									""
								],
								"type": "text/javascript"
							}
						}
					],
					"protocolProfileBehavior": {
						"disableBodyPruning": true
					},
					"request": {
						"method": "GET",
						"header": [
							{
								"key": "API-TOKEN",
								"value": "{{Auth_token}}",
								"type": "text"
							}
						],
						"body": {
							"mode": "raw",
							"raw": "",
							"options": {
								"raw": {
									"language": "json"
								}
							}
						},
						"url": {
							"raw": "https://investment-back.test.ive.one/api/documents/project/{{projectId}}/user/{{userId}}",
							"protocol": "https",
							"host": [
								"investment-back",
								"test",
								"ive",
								"one"
							],
							"path": [
								"api",
								"documents",
								"project",
								"{{projectId}}",
								"user",
								"{{userId}}"
							]
						}
					},
					"response": []
				}
			]
		},
		{
			"name": "Governance",
			"item": [
				{
					"name": "GET List shareholders by project",
					"event": [
						{
							"listen": "test",
							"script": {
								"exec": [
									"pm.test(\"Status code is 200\", function () {\r",
									"    pm.response.to.have.status(200);\r",
									"});\r",
									""
								],
								"type": "text/javascript"
							}
						}
					],
					"protocolProfileBehavior": {
						"disableBodyPruning": true
					},
					"request": {
						"method": "GET",
						"header": [
							{
								"key": "API-TOKEN",
								"value": "{{Auth_token}}",
								"type": "text"
							}
						],
						"body": {
							"mode": "raw",
							"raw": "",
							"options": {
								"raw": {
									"language": "json"
								}
							}
						},
						"url": {
							"raw": "https://investment-back.test.ive.one/api/register/project/{{projectId}}/holders",
							"protocol": "https",
							"host": [
								"investment-back",
								"test",
								"ive",
								"one"
							],
							"path": [
								"api",
								"register",
								"project",
								"{{projectId}}",
								"holders"
							]
						}
					},
					"response": []
				},
				{
					"name": "GET Shareholders info",
					"event": [
						{
							"listen": "test",
							"script": {
								"exec": [
									"pm.test(\"Status code is 200\", function () {\r",
									"    pm.response.to.have.status(200);\r",
									"});\r",
									""
								],
								"type": "text/javascript"
							}
						}
					],
					"protocolProfileBehavior": {
						"disableBodyPruning": true
					},
					"request": {
						"method": "GET",
						"header": [
							{
								"key": "API-TOKEN",
								"value": "{{Auth_token}}",
								"type": "text"
							}
						],
						"body": {
							"mode": "raw",
							"raw": "",
							"options": {
								"raw": {
									"language": "json"
								}
							}
						},
						"url": {
							"raw": "https://investment-back.test.ive.one/api/register/token-holder/project/{{projectId}}/wallet-address/{{walletAddress}}",
							"protocol": "https",
							"host": [
								"investment-back",
								"test",
								"ive",
								"one"
							],
							"path": [
								"api",
								"register",
								"token-holder",
								"project",
								"{{projectId}}",
								"wallet-address",
								"{{walletAddress}}"
							]
						}
					},
					"response": []
				},
				{
					"name": "GET Unregistered shareholders",
					"event": [
						{
							"listen": "test",
							"script": {
								"exec": [
									"pm.test(\"Status code is 200\", function () {\r",
									"    pm.response.to.have.status(200);\r",
									"});\r",
									""
								],
								"type": "text/javascript"
							}
						}
					],
					"protocolProfileBehavior": {
						"disableBodyPruning": true
					},
					"request": {
						"method": "GET",
						"header": [
							{
								"key": "API-TOKEN",
								"value": "{{Auth_token}}",
								"type": "text"
							}
						],
						"body": {
							"mode": "raw",
							"raw": "",
							"options": {
								"raw": {
									"language": "json"
								}
							}
						},
						"url": {
							"raw": "https://investment-back.test.ive.one/api/register/project/{{projectId}}/holders/unknown",
							"protocol": "https",
							"host": [
								"investment-back",
								"test",
								"ive",
								"one"
							],
							"path": [
								"api",
								"register",
								"project",
								"{{projectId}}",
								"holders",
								"unknown"
							]
						}
					},
					"response": []
				},
				{
					"name": "GET Issuer info",
					"event": [
						{
							"listen": "test",
							"script": {
								"exec": [
									"pm.test(\"Status code is 200\", function () {\r",
									"    pm.response.to.have.status(200);\r",
									"});\r",
									""
								],
								"type": "text/javascript"
							}
						}
					],
					"protocolProfileBehavior": {
						"disableBodyPruning": true
					},
					"request": {
						"method": "GET",
						"header": [
							{
								"key": "API-TOKEN",
								"value": "{{Auth_token}}",
								"type": "text"
							}
						],
						"body": {
							"mode": "raw",
							"raw": "",
							"options": {
								"raw": {
									"language": "json"
								}
							}
						},
						"url": {
							"raw": "https://investment-back.test.ive.one/api/register/project/{{projectId}}/issuer",
							"protocol": "https",
							"host": [
								"investment-back",
								"test",
								"ive",
								"one"
							],
							"path": [
								"api",
								"register",
								"project",
								"{{projectId}}",
								"issuer"
							]
						}
					},
					"response": []
				}
			]
		},
		{
			"name": "Issuance conditions",
			"item": [
				{
					"name": "GET Issuance conditions",
					"event": [
						{
							"listen": "test",
							"script": {
								"exec": [
									"pm.test(\"Status code is 200\", function () {\r",
									"    pm.response.to.have.status(200);\r",
									"});\r",
									""
								],
								"type": "text/javascript"
							}
						}
					],
					"protocolProfileBehavior": {
						"disableBodyPruning": true
					},
					"request": {
						"method": "GET",
						"header": [
							{
								"key": "API-TOKEN",
								"value": "{{Auth_token}}",
								"type": "text"
							}
						],
						"body": {
							"mode": "raw",
							"raw": "",
							"options": {
								"raw": {
									"language": "json"
								}
							}
						},
						"url": {
							"raw": "https://investment-back.test.ive.one/api/register/project/{{projectId}}/issuance-conditions",
							"protocol": "https",
							"host": [
								"investment-back",
								"test",
								"ive",
								"one"
							],
							"path": [
								"api",
								"register",
								"project",
								"{{projectId}}",
								"issuance-conditions"
							]
						}
					},
					"response": []
				},
				{
					"name": "GET List history of conditions",
					"event": [
						{
							"listen": "test",
							"script": {
								"exec": [
									"pm.test(\"Status code is 200\", function () {\r",
									"    pm.response.to.have.status(200);\r",
									"});\r",
									""
								],
								"type": "text/javascript"
							}
						}
					],
					"protocolProfileBehavior": {
						"disableBodyPruning": true
					},
					"request": {
						"method": "GET",
						"header": [
							{
								"key": "API-TOKEN",
								"value": "{{Auth_token}}",
								"type": "text"
							}
						],
						"body": {
							"mode": "raw",
							"raw": "",
							"options": {
								"raw": {
									"language": "json"
								}
							}
						},
						"url": {
							"raw": "https://investment-back.test.ive.one/api/register/project/{{projectId}}/issuance-conditions/history",
							"protocol": "https",
							"host": [
								"investment-back",
								"test",
								"ive",
								"one"
							],
							"path": [
								"api",
								"register",
								"project",
								"{{projectId}}",
								"issuance-conditions",
								"history"
							]
						}
					},
					"response": []
				}
			]
		},
		{
			"name": "Project Details",
			"item": [
				{
					"name": "GET List project history",
					"event": [
						{
							"listen": "test",
							"script": {
								"exec": [
									"pm.test(\"Status code is 200\", function () {\r",
									"    pm.response.to.have.status(200);\r",
									"});\r",
									""
								],
								"type": "text/javascript"
							}
						}
					],
					"protocolProfileBehavior": {
						"disableBodyPruning": true
					},
					"request": {
						"method": "GET",
						"header": [
							{
								"key": "API-TOKEN",
								"value": "{{Auth_token}}",
								"type": "text"
							}
						],
						"body": {
							"mode": "raw",
							"raw": "",
							"options": {
								"raw": {
									"language": "json"
								}
							}
						},
						"url": {
							"raw": "https://investment-back.test.ive.one/api/register/project/{{projectId}}/history",
							"protocol": "https",
							"host": [
								"investment-back",
								"test",
								"ive",
								"one"
							],
							"path": [
								"api",
								"register",
								"project",
								"{{projectId}}",
								"history"
							]
						}
					},
					"response": []
				},
				{
					"name": "GET Project migration data",
					"event": [
						{
							"listen": "test",
							"script": {
								"exec": [
									"pm.test(\"Status code is 200\", function () {\r",
									"    pm.response.to.have.status(200);\r",
									"});\r",
									""
								],
								"type": "text/javascript"
							}
						}
					],
					"protocolProfileBehavior": {
						"disableBodyPruning": true
					},
					"request": {
						"method": "GET",
						"header": [
							{
								"key": "API-TOKEN",
								"value": "{{Auth_token}}",
								"type": "text"
							}
						],
						"body": {
							"mode": "raw",
							"raw": "",
							"options": {
								"raw": {
									"language": "json"
								}
							}
						},
						"url": {
							"raw": "https://investment-back.test.ive.one/api/register/project/{{projectId}}/migration",
							"protocol": "https",
							"host": [
								"investment-back",
								"test",
								"ive",
								"one"
							],
							"path": [
								"api",
								"register",
								"project",
								"{{projectId}}",
								"migration"
							]
						}
					},
					"response": []
				},
				{
					"name": "GET Project info",
					"event": [
						{
							"listen": "test",
							"script": {
								"exec": [
									"pm.test(\"Status code is 200\", function () {\r",
									"    pm.response.to.have.status(200);\r",
									"});\r",
									""
								],
								"type": "text/javascript"
							}
						}
					],
					"protocolProfileBehavior": {
						"disableBodyPruning": true
					},
					"request": {
						"method": "GET",
						"header": [
							{
								"key": "API-TOKEN",
								"value": "{{Auth_token}}",
								"type": "text"
							}
						],
						"body": {
							"mode": "raw",
							"raw": "",
							"options": {
								"raw": {
									"language": "json"
								}
							}
						},
						"url": {
							"raw": "https://investment-back.test.ive.one/api/register/project/{{projectId}}",
							"protocol": "https",
							"host": [
								"investment-back",
								"test",
								"ive",
								"one"
							],
							"path": [
								"api",
								"register",
								"project",
								"{{projectId}}"
							]
						}
					},
					"response": []
				},
				{
					"name": "GET Blockchain info",
					"event": [
						{
							"listen": "test",
							"script": {
								"exec": [
									"pm.test(\"Status code is 200\", function () {\r",
									"    pm.response.to.have.status(200);\r",
									"});\r",
									""
								],
								"type": "text/javascript"
							}
						}
					],
					"protocolProfileBehavior": {
						"disableBodyPruning": true
					},
					"request": {
						"method": "GET",
						"header": [
							{
								"key": "API-TOKEN",
								"value": "{{Auth_token}}",
								"type": "text"
							}
						],
						"body": {
							"mode": "raw",
							"raw": "",
							"options": {
								"raw": {
									"language": "json"
								}
							}
						},
						"url": {
							"raw": "https://investment-back.test.ive.one/api/register/project/{{projectId}}/network",
							"protocol": "https",
							"host": [
								"investment-back",
								"test",
								"ive",
								"one"
							],
							"path": [
								"api",
								"register",
								"project",
								"{{projectId}}",
								"network"
							]
						}
					},
					"response": []
				},
				{
					"name": "GET Project status",
					"event": [
						{
							"listen": "test",
							"script": {
								"exec": [
									"pm.test(\"Status code is 200\", function () {\r",
									"    pm.response.to.have.status(200);\r",
									"});\r",
									""
								],
								"type": "text/javascript"
							}
						}
					],
					"protocolProfileBehavior": {
						"disableBodyPruning": true
					},
					"request": {
						"method": "GET",
						"header": [
							{
								"key": "API-TOKEN",
								"value": "{{Auth_token}}",
								"type": "text"
							}
						],
						"body": {
							"mode": "raw",
							"raw": "",
							"options": {
								"raw": {
									"language": "json"
								}
							}
						},
						"url": {
							"raw": "https://investment-back.test.ive.one/api/register/project/{{projectId}}/status",
							"protocol": "https",
							"host": [
								"investment-back",
								"test",
								"ive",
								"one"
							],
							"path": [
								"api",
								"register",
								"project",
								"{{projectId}}",
								"status"
							]
						}
					},
					"response": []
				},
				{
					"name": "GET LEI number",
					"event": [
						{
							"listen": "test",
							"script": {
								"exec": [
									"pm.test(\"Status code is 200\", function () {\r",
									"    pm.response.to.have.status(200);\r",
									"});\r",
									""
								],
								"type": "text/javascript"
							}
						}
					],
					"protocolProfileBehavior": {
						"disableBodyPruning": true
					},
					"request": {
						"method": "GET",
						"header": [
							{
								"key": "API-TOKEN",
								"value": "{{Auth_token}}",
								"type": "text"
							}
						],
						"body": {
							"mode": "raw",
							"raw": "",
							"options": {
								"raw": {
									"language": "json"
								}
							}
						},
						"url": {
							"raw": "https://investment-back.test.ive.one/api/register/project/{{projectId}}/lei-number",
							"protocol": "https",
							"host": [
								"investment-back",
								"test",
								"ive",
								"one"
							],
							"path": [
								"api",
								"register",
								"project",
								"{{projectId}}",
								"lei-number"
							]
						}
					},
					"response": []
				},
				{
					"name": "GET List networks",
					"event": [
						{
							"listen": "test",
							"script": {
								"exec": [
									"pm.test(\"Status code is 200\", function () {\r",
									"    pm.response.to.have.status(200);\r",
									"});\r",
									""
								],
								"type": "text/javascript"
							}
						}
					],
					"protocolProfileBehavior": {
						"disableBodyPruning": true
					},
					"request": {
						"method": "GET",
						"header": [
							{
								"key": "API-TOKEN",
								"value": "{{Auth_token}}",
								"type": "text"
							}
						],
						"body": {
							"mode": "raw",
							"raw": "",
							"options": {
								"raw": {
									"language": "json"
								}
							}
						},
						"url": {
							"raw": "https://investment-back.test.ive.one/api/register/network",
							"protocol": "https",
							"host": [
								"investment-back",
								"test",
								"ive",
								"one"
							],
							"path": [
								"api",
								"register",
								"network"
							]
						}
					},
					"response": []
				}
			]
		},
		{
			"name": "Projects",
			"item": [
				{
					"name": "GET Projects list",
					"event": [
						{
							"listen": "test",
							"script": {
								"exec": [
									"pm.test(\"Status code is 200\", function () {\r",
									"    pm.response.to.have.status(200);\r",
									"});\r",
									""
								],
								"type": "text/javascript"
							}
						}
					],
					"protocolProfileBehavior": {
						"disableBodyPruning": true
					},
					"request": {
						"method": "GET",
						"header": [
							{
								"key": "API-TOKEN",
								"value": "{{Auth_token}}",
								"type": "text"
							}
						],
						"body": {
							"mode": "raw",
							"raw": "",
							"options": {
								"raw": {
									"language": "json"
								}
							}
						},
						"url": {
							"raw": "https://investment-back.test.ive.one/api/project",
							"protocol": "https",
							"host": [
								"investment-back",
								"test",
								"ive",
								"one"
							],
							"path": [
								"api",
								"project"
							]
						}
					},
					"response": []
				},
				{
					"name": "GET User roles",
					"event": [
						{
							"listen": "test",
							"script": {
								"exec": [
									"pm.test(\"Status code is 200\", function () {\r",
									"    pm.response.to.have.status(200);\r",
									"});"
								],
								"type": "text/javascript"
							}
						}
					],
					"request": {
						"method": "GET",
						"header": [
							{
								"key": "API-TOKEN",
								"value": "{{Auth_token}}",
								"type": "text"
							}
						],
						"url": {
							"raw": "https://investment-back.test.ive.one/api/project/{{projectId}}/relations",
							"protocol": "https",
							"host": [
								"investment-back",
								"test",
								"ive",
								"one"
							],
							"path": [
								"api",
								"project",
								"{{projectId}}",
								"relations"
							]
						}
					},
					"response": []
				},
				{
					"name": "GET Token Price",
					"event": [
						{
							"listen": "test",
							"script": {
								"exec": [
									"pm.test(\"Status code is 200\", function () {\r",
									"    pm.response.to.have.status(200);\r",
									"});"
								],
								"type": "text/javascript"
							}
						}
					],
					"request": {
						"method": "GET",
						"header": [
							{
								"key": "API-TOKEN",
								"value": "{{Auth_token}}",
								"type": "text"
							}
						],
						"url": {
							"raw": "https://investment-back.test.ive.one/api/project/{{projectId}}/price/{{userId}}",
							"protocol": "https",
							"host": [
								"investment-back",
								"test",
								"ive",
								"one"
							],
							"path": [
								"api",
								"project",
								"{{projectId}}",
								"price",
								"{{userId}}"
							]
						}
					},
					"response": []
				}
			]
		},
		{
			"name": "Sanctions",
			"item": [
				{
					"name": "GET Sanctions lists",
					"event": [
						{
							"listen": "test",
							"script": {
								"exec": [
									"pm.test(\"Status code is 200\", function () {\r",
									"    pm.response.to.have.status(200);\r",
									"});\r",
									""
								],
								"type": "text/javascript"
							}
						}
					],
					"request": {
						"method": "GET",
						"header": [
							{
								"key": "API-TOKEN",
								"value": "{{Auth_token}}",
								"type": "text"
							}
						],
						"url": {
							"raw": "https://investment-back.test.ive.one/api/sanctions",
							"protocol": "https",
							"host": [
								"investment-back",
								"test",
								"ive",
								"one"
							],
							"path": [
								"api",
								"sanctions"
							]
						}
					},
					"response": []
				},
				{
					"name": "GET Check user's sanctions",
					"event": [
						{
							"listen": "test",
							"script": {
								"exec": [
									"pm.test(\"Status code is 200\", function () {\r",
									"    pm.response.to.have.status(200);\r",
									"});\r",
									""
								],
								"type": "text/javascript"
							}
						}
					],
					"request": {
						"method": "GET",
						"header": [
							{
								"key": "API-TOKEN",
								"value": "{{Auth_token}}",
								"type": "text"
							}
						],
						"url": {
							"raw": "https://investment-back.test.ive.one/api/sanctions/user/{{userId}}",
							"protocol": "https",
							"host": [
								"investment-back",
								"test",
								"ive",
								"one"
							],
							"path": [
								"api",
								"sanctions",
								"user",
								"{{userId}}"
							]
						}
					},
					"response": []
				}
			]
		},
		{
			"name": "Sell orders",
			"item": [
				{
					"name": "GET List sell orders",
					"event": [
						{
							"listen": "test",
							"script": {
								"exec": [
									"pm.test(\"Status code is 200\", function () {\r",
									"    pm.response.to.have.status(200);\r",
									"});\r",
									""
								],
								"type": "text/javascript"
							}
						}
					],
					"request": {
						"method": "GET",
						"header": [
							{
								"key": "API-TOKEN",
								"value": "{{Auth_token}}",
								"type": "text"
							}
						],
						"url": {
							"raw": "https://investment-back.test.ive.one/api/sell-orders/{{sell_orderId}}",
							"protocol": "https",
							"host": [
								"investment-back",
								"test",
								"ive",
								"one"
							],
							"path": [
								"api",
								"sell-orders",
								"{{sell_orderId}}"
							]
						}
					},
					"response": []
				},
				{
					"name": "GET List sell orders by project",
					"event": [
						{
							"listen": "test",
							"script": {
								"exec": [
									"pm.test(\"Status code is 200\", function () {\r",
									"    pm.response.to.have.status(200);\r",
									"});\r",
									"\r",
									"pm.test(\"Set Variable\", function () {\r",
									"    var jsonData = pm.response.json();\r",
									"    pm.environment.set(\"sell_orderId\", jsonData[0].id);\r",
									"});\r",
									""
								],
								"type": "text/javascript"
							}
						}
					],
					"request": {
						"method": "GET",
						"header": [
							{
								"key": "API-TOKEN",
								"value": "{{Auth_token}}",
								"type": "text"
							}
						],
						"url": {
							"raw": "https://investment-back.test.ive.one/api/sell-orders/project/{{projectId}}",
							"protocol": "https",
							"host": [
								"investment-back",
								"test",
								"ive",
								"one"
							],
							"path": [
								"api",
								"sell-orders",
								"project",
								"{{projectId}}"
							]
						}
					},
					"response": []
				}
			]
		},
		{
			"name": "Trade settlement",
			"item": [
				{
					"name": "GET Orders",
					"event": [
						{
							"listen": "test",
							"script": {
								"exec": [
									"pm.test(\"Status code is 200\", function () {\r",
									"    pm.response.to.have.status(200);\r",
									"});\r",
									""
								],
								"type": "text/javascript"
							}
						}
					],
					"request": {
						"method": "GET",
						"header": [
							{
								"key": "API-TOKEN",
								"value": "{{Auth_token}}",
								"type": "text"
							}
						],
						"url": {
							"raw": "https://investment-back.test.ive.one/api/trade-settlement/user/{{userId}}/order",
							"protocol": "https",
							"host": [
								"investment-back",
								"test",
								"ive",
								"one"
							],
							"path": [
								"api",
								"trade-settlement",
								"user",
								"{{userId}}",
								"order"
							]
						}
					},
					"response": []
				},
				{
					"name": "GET User balance",
					"event": [
						{
							"listen": "test",
							"script": {
								"exec": [
									"pm.test(\"Status code is 200\", function () {\r",
									"    pm.response.to.have.status(200);\r",
									"});\r",
									""
								],
								"type": "text/javascript"
							}
						}
					],
					"request": {
						"method": "GET",
						"header": [
							{
								"key": "API-TOKEN",
								"value": "{{Auth_token}}",
								"type": "text"
							}
						],
						"url": {
							"raw": "https://investment-back.test.ive.one/api/trade-settlement/user/{{userId}}/balance",
							"protocol": "https",
							"host": [
								"investment-back",
								"test",
								"ive",
								"one"
							],
							"path": [
								"api",
								"trade-settlement",
								"user",
								"{{userId}}",
								"balance"
							]
						}
					},
					"response": []
				},
				{
					"name": "GET User balance by currency",
					"event": [
						{
							"listen": "test",
							"script": {
								"exec": [
									"pm.test(\"Status code is 200\", function () {\r",
									"    pm.response.to.have.status(200);\r",
									"});\r",
									""
								],
								"type": "text/javascript"
							}
						}
					],
					"request": {
						"method": "GET",
						"header": [
							{
								"key": "API-TOKEN",
								"value": "{{Auth_token}}",
								"type": "text"
							}
						],
						"url": {
							"raw": "https://investment-back.test.ive.one/api/trade-settlement/user/{{userId}}/balance/{{currency}}",
							"protocol": "https",
							"host": [
								"investment-back",
								"test",
								"ive",
								"one"
							],
							"path": [
								"api",
								"trade-settlement",
								"user",
								"{{userId}}",
								"balance",
								"{{currency}}"
							]
						}
					},
					"response": []
				},
				{
					"name": "GET Orders by currency",
					"event": [
						{
							"listen": "test",
							"script": {
								"exec": [
									"pm.test(\"Status code is 200\", function () {\r",
									"    pm.response.to.have.status(200);\r",
									"});\r",
									""
								],
								"type": "text/javascript"
							}
						}
					],
					"request": {
						"method": "GET",
						"header": [
							{
								"key": "API-TOKEN",
								"value": "{{Auth_token}}",
								"type": "text"
							}
						],
						"url": {
							"raw": "https://investment-back.test.ive.one/api/trade-settlement/user/{{userId}}/order/{{currency}}",
							"protocol": "https",
							"host": [
								"investment-back",
								"test",
								"ive",
								"one"
							],
							"path": [
								"api",
								"trade-settlement",
								"user",
								"{{userId}}",
								"order",
								"{{currency}}"
							]
						}
					},
					"response": []
				},
				{
					"name": "GET Aggregated balance (bug)",
					"event": [
						{
							"listen": "test",
							"script": {
								"exec": [
									"pm.test(\"Status code is 200\", function () {\r",
									"    pm.response.to.have.status(200);\r",
									"});\r",
									""
								],
								"type": "text/javascript"
							}
						}
					],
					"request": {
						"method": "GET",
						"header": [
							{
								"key": "API-TOKEN",
								"value": "{{Auth_token}}",
								"type": "text"
							}
						],
						"url": {
							"raw": "https://investment-back.test.ive.one/api/trade-settlement/aggregated/balance",
							"protocol": "https",
							"host": [
								"investment-back",
								"test",
								"ive",
								"one"
							],
							"path": [
								"api",
								"trade-settlement",
								"aggregated",
								"balance"
							]
						}
					},
					"response": []
				},
				{
					"name": "GET Aggregated balance by currency (bug)",
					"event": [
						{
							"listen": "test",
							"script": {
								"exec": [
									"pm.test(\"Status code is 200\", function () {\r",
									"    pm.response.to.have.status(200);\r",
									"});\r",
									""
								],
								"type": "text/javascript"
							}
						}
					],
					"request": {
						"method": "GET",
						"header": [
							{
								"key": "API-TOKEN",
								"value": "{{Auth_token}}",
								"type": "text"
							}
						],
						"url": {
							"raw": "https://investment-back.test.ive.one/api/trade-settlement/aggregated/balance/{{currency}}",
							"protocol": "https",
							"host": [
								"investment-back",
								"test",
								"ive",
								"one"
							],
							"path": [
								"api",
								"trade-settlement",
								"aggregated",
								"balance",
								"{{currency}}"
							]
						}
					},
					"response": []
				}
			]
		},
		{
			"name": "Trades",
			"item": [
				{
					"name": "GET User balance",
					"event": [
						{
							"listen": "test",
							"script": {
								"exec": [
									"pm.test(\"Status code is 200\", function () {\r",
									"    pm.response.to.have.status(200);\r",
									"});\r",
									""
								],
								"type": "text/javascript"
							}
						}
					],
					"request": {
						"method": "GET",
						"header": [
							{
								"key": "API-TOKEN",
								"value": "{{Auth_token}}",
								"type": "text"
							}
						],
						"url": {
							"raw": "https://investment-back.test.ive.one/api/trades/balances/user/{{userId}}",
							"protocol": "https",
							"host": [
								"investment-back",
								"test",
								"ive",
								"one"
							],
							"path": [
								"api",
								"trades",
								"balances",
								"user",
								"{{userId}}"
							]
						}
					},
					"response": []
				},
				{
					"name": "GET User balance by currency (bug)",
					"event": [
						{
							"listen": "test",
							"script": {
								"exec": [
									"pm.test(\"Status code is 200\", function () {\r",
									"    pm.response.to.have.status(200);\r",
									"});\r",
									""
								],
								"type": "text/javascript"
							}
						}
					],
					"request": {
						"method": "GET",
						"header": [
							{
								"key": "API-TOKEN",
								"value": "{{Auth_token}}",
								"type": "text"
							}
						],
						"url": {
							"raw": "https://investment-back.test.ive.one/api/trades/balances/user/{{userId}}/currency/{{currency}}",
							"protocol": "https",
							"host": [
								"investment-back",
								"test",
								"ive",
								"one"
							],
							"path": [
								"api",
								"trades",
								"balances",
								"user",
								"{{userId}}",
								"currency",
								"{{currency}}"
							]
						}
					},
					"response": []
				},
				{
					"name": "GET Trade orders",
					"event": [
						{
							"listen": "test",
							"script": {
								"exec": [
									"pm.test(\"Status code is 200\", function () {\r",
									"    pm.response.to.have.status(200);\r",
									"});\r",
									""
								],
								"type": "text/javascript"
							}
						}
					],
					"request": {
						"method": "GET",
						"header": [
							{
								"key": "API-TOKEN",
								"value": "{{Auth_token}}",
								"type": "text"
							}
						],
						"url": {
							"raw": "https://investment-back.test.ive.one/api/trades/",
							"protocol": "https",
							"host": [
								"investment-back",
								"test",
								"ive",
								"one"
							],
							"path": [
								"api",
								"trades",
								""
							]
						}
					},
					"response": []
				},
				{
					"name": "GET Trade order",
					"event": [
						{
							"listen": "test",
							"script": {
								"exec": [
									"pm.test(\"Status code is 200\", function () {\r",
									"    pm.response.to.have.status(200);\r",
									"});\r",
									""
								],
								"type": "text/javascript"
							}
						}
					],
					"request": {
						"method": "GET",
						"header": [
							{
								"key": "API-TOKEN",
								"value": "{{Auth_token}}",
								"type": "text"
							}
						],
						"url": {
							"raw": "https://investment-back.test.ive.one/api/trades/{{orderId}}",
							"protocol": "https",
							"host": [
								"investment-back",
								"test",
								"ive",
								"one"
							],
							"path": [
								"api",
								"trades",
								"{{orderId}}"
							]
						}
					},
					"response": []
				}
			]
		},
		{
			"name": "Transactions",
			"item": [
				{
					"name": "GET List user transactions",
					"event": [
						{
							"listen": "test",
							"script": {
								"exec": [
									"pm.test(\"Status code is 200\", function () {\r",
									"    pm.response.to.have.status(200);\r",
									"});\r",
									""
								],
								"type": "text/javascript"
							}
						}
					],
					"request": {
						"method": "GET",
						"header": [
							{
								"key": "API-TOKEN",
								"value": "{{Auth_token}}",
								"type": "text"
							}
						],
						"url": {
							"raw": "https://investment-back.test.ive.one/api/transactions/user/{{userId}}",
							"protocol": "https",
							"host": [
								"investment-back",
								"test",
								"ive",
								"one"
							],
							"path": [
								"api",
								"transactions",
								"user",
								"{{userId}}"
							]
						}
					},
					"response": []
				},
				{
					"name": "GET List wallet transactions",
					"event": [
						{
							"listen": "test",
							"script": {
								"exec": [
									"pm.test(\"Status code is 200\", function () {\r",
									"    pm.response.to.have.status(200);\r",
									"});"
								],
								"type": "text/javascript"
							}
						}
					],
					"request": {
						"method": "GET",
						"header": [
							{
								"key": "API-TOKEN",
								"value": "{{Auth_token}}",
								"type": "text"
							}
						],
						"url": {
							"raw": "https://investment-back.test.ive.one/api/transactions/wallet/{{walletId}}",
							"protocol": "https",
							"host": [
								"investment-back",
								"test",
								"ive",
								"one"
							],
							"path": [
								"api",
								"transactions",
								"wallet",
								"{{walletId}}"
							]
						}
					},
					"response": []
				},
				{
					"name": "GET List project transactions",
					"event": [
						{
							"listen": "test",
							"script": {
								"exec": [
									"pm.test(\"Status code is 200\", function () {\r",
									"    pm.response.to.have.status(200);\r",
									"});"
								],
								"type": "text/javascript"
							}
						}
					],
					"request": {
						"method": "GET",
						"header": [
							{
								"key": "API-TOKEN",
								"value": "{{Auth_token}}",
								"type": "text"
							}
						],
						"url": {
							"raw": "https://investment-back.test.ive.one/api/transactions/project/{{projectId}}",
							"protocol": "https",
							"host": [
								"investment-back",
								"test",
								"ive",
								"one"
							],
							"path": [
								"api",
								"transactions",
								"project",
								"{{projectId}}"
							]
						}
					},
					"response": []
				}
			]
		},
		{
			"name": "User roles",
			"item": [
				{
					"name": "GET List all roles",
					"event": [
						{
							"listen": "test",
							"script": {
								"exec": [
									"pm.test(\"Status code is 200\", function () {\r",
									"    pm.response.to.have.status(200);\r",
									"});"
								],
								"type": "text/javascript"
							}
						}
					],
					"request": {
						"method": "GET",
						"header": [
							{
								"key": "API-TOKEN",
								"value": "{{Auth_token}}",
								"type": "text"
							}
						],
						"url": {
							"raw": "https://investment-back.test.ive.one/api/roles",
							"protocol": "https",
							"host": [
								"investment-back",
								"test",
								"ive",
								"one"
							],
							"path": [
								"api",
								"roles"
							]
						}
					},
					"response": []
				}
			]
		},
		{
			"name": "Users",
			"item": [
				{
					"name": "GET Users",
					"event": [
						{
							"listen": "test",
							"script": {
								"exec": [
									"pm.test(\"Status code is 200\", function () {\r",
									"    pm.response.to.have.status(200);\r",
									"});"
								],
								"type": "text/javascript"
							}
						}
					],
					"request": {
						"method": "GET",
						"header": [
							{
								"key": "API-TOKEN",
								"value": "{{Auth_token}}",
								"type": "text"
							}
						],
						"url": {
							"raw": "https://investment-back.test.ive.one/api/users",
							"protocol": "https",
							"host": [
								"investment-back",
								"test",
								"ive",
								"one"
							],
							"path": [
								"api",
								"users"
							]
						}
					},
					"response": []
				},
				{
					"name": "GET Basic user info",
					"event": [
						{
							"listen": "test",
							"script": {
								"exec": [
									"pm.test(\"Status code is 200\", function () {\r",
									"    pm.response.to.have.status(200);\r",
									"});"
								],
								"type": "text/javascript"
							}
						}
					],
					"request": {
						"method": "GET",
						"header": [
							{
								"key": "API-TOKEN",
								"value": "{{Auth_token}}",
								"type": "text"
							}
						],
						"url": {
							"raw": "https://investment-back.test.ive.one/api/users/{{userId}}",
							"protocol": "https",
							"host": [
								"investment-back",
								"test",
								"ive",
								"one"
							],
							"path": [
								"api",
								"users",
								"{{userId}}"
							]
						}
					},
					"response": []
				},
				{
					"name": "GET Connect user to project(empty)",
					"event": [
						{
							"listen": "test",
							"script": {
								"exec": [
									"pm.test(\"Status code is 200\", function () {\r",
									"    pm.response.to.have.status(200);\r",
									"});"
								],
								"type": "text/javascript"
							}
						}
					],
					"request": {
						"method": "GET",
						"header": [
							{
								"key": "API-TOKEN",
								"value": "{{Auth_token}}",
								"type": "text"
							}
						],
						"url": {
							"raw": "https://investment-back.test.ive.one/api/users/{{userId}}/relations/{{projectId}}",
							"protocol": "https",
							"host": [
								"investment-back",
								"test",
								"ive",
								"one"
							],
							"path": [
								"api",
								"users",
								"{{userId}}",
								"relations",
								"{{projectId}}"
							]
						}
					},
					"response": []
				},
				{
					"name": "GET Extended user info",
					"event": [
						{
							"listen": "test",
							"script": {
								"exec": [
									"pm.test(\"Status code is 200\", function () {\r",
									"    pm.response.to.have.status(200);\r",
									"});"
								],
								"type": "text/javascript"
							}
						}
					],
					"request": {
						"method": "GET",
						"header": [
							{
								"key": "API-TOKEN",
								"value": "{{Auth_token}}",
								"type": "text"
							}
						],
						"url": {
							"raw": "https://investment-back.test.ive.one/api/users/extended/{{userId}}",
							"protocol": "https",
							"host": [
								"investment-back",
								"test",
								"ive",
								"one"
							],
							"path": [
								"api",
								"users",
								"extended",
								"{{userId}}"
							]
						}
					},
					"response": []
				}
			]
		},
		{
			"name": "Vesting",
			"item": [
				{
					"name": "GET Vesting orders by project id",
					"event": [
						{
							"listen": "test",
							"script": {
								"exec": [
									"pm.test(\"Status code is 200\", function () {\r",
									"    pm.response.to.have.status(200);\r",
									"});"
								],
								"type": "text/javascript"
							}
						}
					],
					"request": {
						"method": "GET",
						"header": [
							{
								"key": "API-TOKEN",
								"value": "{{Auth_token}}",
								"type": "text"
							}
						],
						"url": {
							"raw": "https://investment-back.test.ive.one/api/vesting/project/{{projectId}}/vesting-orders",
							"protocol": "https",
							"host": [
								"investment-back",
								"test",
								"ive",
								"one"
							],
							"path": [
								"api",
								"vesting",
								"project",
								"{{projectId}}",
								"vesting-orders"
							]
						}
					},
					"response": []
				},
				{
					"name": "GET Vesop by project id",
					"event": [
						{
							"listen": "test",
							"script": {
								"exec": [
									"pm.test(\"Status code is 200\", function () {\r",
									"    pm.response.to.have.status(200);\r",
									"});"
								],
								"type": "text/javascript"
							}
						}
					],
					"request": {
						"method": "GET",
						"header": [
							{
								"key": "API-TOKEN",
								"value": "{{Auth_token}}",
								"type": "text"
							}
						],
						"url": {
							"raw": "https://investment-back.test.ive.one/api/vesting/project/{{projectId}}/vesop",
							"protocol": "https",
							"host": [
								"investment-back",
								"test",
								"ive",
								"one"
							],
							"path": [
								"api",
								"vesting",
								"project",
								"{{projectId}}",
								"vesop"
							]
						}
					},
					"response": []
				}
			]
		},
		{
			"name": "Wallets",
			"item": [
				{
					"name": "GET List user wallets by network",
					"event": [
						{
							"listen": "test",
							"script": {
								"exec": [
									"pm.test(\"Status code is 200\", function () {\r",
									"    pm.response.to.have.status(200);\r",
									"});"
								],
								"type": "text/javascript"
							}
						}
					],
					"request": {
						"method": "GET",
						"header": [
							{
								"key": "API-TOKEN",
								"value": "{{Auth_token}}",
								"type": "text"
							}
						],
						"url": {
							"raw": "https://investment-back.test.ive.one/api/wallets/user/{{userId}}/{{network}}",
							"protocol": "https",
							"host": [
								"investment-back",
								"test",
								"ive",
								"one"
							],
							"path": [
								"api",
								"wallets",
								"user",
								"{{userId}}",
								"{{network}}"
							]
						}
					},
					"response": []
				},
				{
					"name": "GET List user wallets",
					"event": [
						{
							"listen": "test",
							"script": {
								"exec": [
									"pm.test(\"Status code is 200\", function () {\r",
									"    pm.response.to.have.status(200);\r",
									"});\r",
									"\r",
									"pm.test(\"Set Variable\", function () {\r",
									"    var jsonData = pm.response.json();\r",
									"    pm.environment.set(\"walletId\", jsonData[0].id);\r",
									"});\r",
									"\r",
									"pm.test(\"Set Variable\", function () {\r",
									"    var jsonData = pm.response.json();\r",
									"    pm.environment.set(\"walletAddress\", jsonData[0].address);\r",
									"});"
								],
								"type": "text/javascript"
							}
						}
					],
					"request": {
						"method": "GET",
						"header": [
							{
								"key": "API-TOKEN",
								"value": "{{Auth_token}}",
								"type": "text"
							}
						],
						"url": {
							"raw": "https://investment-back.test.ive.one/api/wallets/user/{{userId}}",
							"protocol": "https",
							"host": [
								"investment-back",
								"test",
								"ive",
								"one"
							],
							"path": [
								"api",
								"wallets",
								"user",
								"{{userId}}"
							]
						}
					},
					"response": []
				}
			]
		}
	]
}